…
> # Set to the last date patient has documented clinical data
> 
> # Check for last known live date 
> adsl <- adsl %>%
+   derive_vars_extreme_event( .... [TRUNCATED] 

> save(adsl, file = file.path("adsl.rda"))

> sink()
[1] "/Users/itzcmy/Desktop/Genentech/question_2_adam"
[1] 107
[1] 225
# A tibble: 1,122 × 108
   STUDYID   DOMAIN USUBJID AESEQ AESPID AETERM AELLT AELLTCD AEDECOD AEPTCD AEHLT
   <chr>     <chr>  <chr>   <dbl> <chr>  <chr>  <chr>   <dbl> <chr>    <dbl> <chr>
 1 CDISCPIL… AE     01-701…     1 E07    APPLI… APPL…      NA APPLIC…     NA HLT_…
 2 CDISCPIL… AE     01-701…     2 E08    APPLI… APPL…      NA APPLIC…     NA HLT_…
 3 CDISCPIL… AE     01-701…     3 E06    DIARR… DIAR…      NA DIARRH…     NA HLT_…
 4 CDISCPIL… AE     01-701…     2 E09    ERYTH… LOCA…      NA ERYTHE…     NA HLT_…
 5 CDISCPIL… AE     01-701…     1 E08    ERYTH… ERYT…      NA ERYTHE…     NA HLT_…
 6 CDISCPIL… AE     01-701…     4 E08    ERYTH… ERYT…      NA ERYTHE…     NA HLT_…
 7 CDISCPIL… AE     01-701…     3 E10    ATRIO… AV B…      NA ATRIOV…     NA HLT_…
 8 CDISCPIL… AE     01-701…     1 E04    APPLI… APPL…      NA APPLIC…     NA HLT_…
 9 CDISCPIL… AE     01-701…     2 E05    APPLI… APPL…      NA APPLIC…     NA HLT_…
10 CDISCPIL… AE     01-701…     1 E08    APPLI… APPL…      NA APPLIC…     NA HLT_…
# ℹ 1,112 more rows
# ℹ 97 more variables: AEHLTCD <dbl>, AEHLGT <chr>, AEHLGTCD <dbl>,
#   AEBODSYS <chr>, AEBDSYCD <dbl>, AESOC <chr>, AESOCCD <dbl>, AESEV <chr>,
#   AESER <chr>, AEACN <chr>, AEREL <chr>, AEOUT <chr>, AESCAN <chr>,
#   AESCONG <chr>, AESDISAB <chr>, AESDTH <chr>, AESHOSP <chr>, AESLIFE <chr>,
#   AESOD <chr>, AEDTC <chr>, AESTDTC <chr>, AEENDTC <chr>, AESTDY <dbl>,
#   AEENDY <dbl>, TRTSDT <date>, TRTEDT <date>, DTHDT <date>, EOSDT <date>, …
# ℹ Use `print(n = ...)` to see more rows
# A tibble: 0 × 108
# ℹ 108 variables: STUDYID <chr>, DOMAIN <chr>, USUBJID <chr>, AESEQ <dbl>,
#   AESPID <chr>, AETERM <chr>, AELLT <chr>, AELLTCD <dbl>, AEDECOD <chr>,
#   AEPTCD <dbl>, AEHLT <chr>, AEHLTCD <dbl>, AEHLGT <chr>, AEHLGTCD <dbl>,
#   AEBODSYS <chr>, AEBDSYCD <dbl>, AESOC <chr>, AESOCCD <dbl>, AESEV <chr>,
#   AESER <chr>, AEACN <chr>, AEREL <chr>, AEOUT <chr>, AESCAN <chr>,
#   AESCONG <chr>, AESDISAB <chr>, AESDTH <chr>, AESHOSP <chr>, AESLIFE <chr>,
#   AESOD <chr>, AEDTC <chr>, AESTDTC <chr>, AEENDTC <chr>, AESTDY <dbl>, …
# ℹ Use `colnames()` to see all variable names
# A tibble: 1,122 × 109
   STUDYID   DOMAIN USUBJID AESEQ AESPID AETERM AELLT AELLTCD AEDECOD AEPTCD AEHLT
   <chr>     <chr>  <chr>   <dbl> <chr>  <chr>  <chr>   <dbl> <chr>    <dbl> <chr>
 1 CDISCPIL… AE     01-701…     1 E07    APPLI… APPL…      NA APPLIC…     NA HLT_…
 2 CDISCPIL… AE     01-701…     2 E08    APPLI… APPL…      NA APPLIC…     NA HLT_…
 3 CDISCPIL… AE     01-701…     3 E06    DIARR… DIAR…      NA DIARRH…     NA HLT_…
 4 CDISCPIL… AE     01-701…     2 E09    ERYTH… LOCA…      NA ERYTHE…     NA HLT_…
 5 CDISCPIL… AE     01-701…     1 E08    ERYTH… ERYT…      NA ERYTHE…     NA HLT_…
 6 CDISCPIL… AE     01-701…     4 E08    ERYTH… ERYT…      NA ERYTHE…     NA HLT_…
 7 CDISCPIL… AE     01-701…     3 E10    ATRIO… AV B…      NA ATRIOV…     NA HLT_…
 8 CDISCPIL… AE     01-701…     1 E04    APPLI… APPL…      NA APPLIC…     NA HLT_…
 9 CDISCPIL… AE     01-701…     2 E05    APPLI… APPL…      NA APPLIC…     NA HLT_…
10 CDISCPIL… AE     01-701…     1 E08    APPLI… APPL…      NA APPLIC…     NA HLT_…
# ℹ 1,112 more rows
# ℹ 98 more variables: AEHLTCD <dbl>, AEHLGT <chr>, AEHLGTCD <dbl>,
#   AEBODSYS <chr>, AEBDSYCD <dbl>, AESOC <chr>, AESOCCD <dbl>, AESEV <chr>,
#   AESER <chr>, AEACN <chr>, AEREL <chr>, AEOUT <chr>, AESCAN <chr>,
#   AESCONG <chr>, AESDISAB <chr>, AESDTH <chr>, AESHOSP <chr>, AESLIFE <chr>,
#   AESOD <chr>, AEDTC <chr>, AESTDTC <chr>, AEENDTC <chr>, AESTDY <dbl>,
#   AEENDY <dbl>, TRTSDT <date>, TRTEDT <date>, DTHDT <date>, EOSDT <date>, …
# ℹ Use `print(n = ...)` to see more rows
…
   N    Y 
1188    3 

   Y 
1191 
# A tibble: 23 × 1
   AESOC                                               
   <chr>                                               
 1 GENERAL DISORDERS AND ADMINISTRATION SITE CONDITIONS
 2 GASTROINTESTINAL DISORDERS                          
 3 SKIN AND SUBCUTANEOUS TISSUE DISORDERS              
 4 CARDIAC DISORDERS                                   
 5 INFECTIONS AND INFESTATIONS                         
 6 RESPIRATORY, THORACIC AND MEDIASTINAL DISORDERS     
 7 MUSCULOSKELETAL AND CONNECTIVE TISSUE DISORDERS     
 8 RENAL AND URINARY DISORDERS                         
 9 EYE DISORDERS                                       
10 METABOLISM AND NUTRITION DISORDERS                  
# ℹ 13 more rows
# ℹ Use `print(n = ...)` to see more rows
# A tibble: 1,191 × 109
   STUDYID.x  DOMAIN USUBJID AESEQ AESPID AETERM AELLT AELLTCD AEDECOD AEPTCD AEHLT
   <chr>      <chr>  <chr>   <dbl> <chr>  <chr>  <chr>   <dbl> <chr>    <dbl> <chr>
 1 CDISCPILO… AE     01-701…     1 E07    APPLI… APPL…      NA APPLIC…     NA HLT_…
 2 CDISCPILO… AE     01-701…     2 E08    APPLI… APPL…      NA APPLIC…     NA HLT_…
 3 CDISCPILO… AE     01-701…     3 E06    DIARR… DIAR…      NA DIARRH…     NA HLT_…
 4 CDISCPILO… AE     01-701…     2 E09    ERYTH… LOCA…      NA ERYTHE…     NA HLT_…
 5 CDISCPILO… AE     01-701…     1 E08    ERYTH… ERYT…      NA ERYTHE…     NA HLT_…
 6 CDISCPILO… AE     01-701…     4 E08    ERYTH… ERYT…      NA ERYTHE…     NA HLT_…
 7 CDISCPILO… AE     01-701…     3 E10    ATRIO… AV B…      NA ATRIOV…     NA HLT_…
 8 CDISCPILO… AE     01-701…     1 E04    APPLI… APPL…      NA APPLIC…     NA HLT_…
 9 CDISCPILO… AE     01-701…     2 E05    APPLI… APPL…      NA APPLIC…     NA HLT_…
10 CDISCPILO… AE     01-701…     1 E08    APPLI… APPL…      NA APPLIC…     NA HLT_…
# ℹ 1,181 more rows
# ℹ 98 more variables: AEHLTCD <dbl>, AEHLGT <chr>, AEHLGTCD <dbl>,
#   AEBODSYS <chr>, AEBDSYCD <dbl>, AESOC <chr>, AESOCCD <dbl>, AESEV <chr>,
#   AESER <chr>, AEACN <chr>, AEREL <chr>, AEOUT <chr>, AESCAN <chr>,
#   AESCONG <chr>, AESDISAB <chr>, AESDTH <chr>, AESHOSP <chr>, AESLIFE <chr>,
#   AESOD <chr>, AEDTC <chr>, AESTDTC <chr>, AEENDTC <chr>, AESTDY <dbl>,
#   AEENDY <dbl>, TRTSDT <date>, TRTEDT <date>, DTHDT <date>, EOSDT <date>, …
# ℹ Use `print(n = ...)` to see more rows
# A tibble: 306 × 54
   STUDYID USUBJID SUBJID RFSTDTC RFENDTC RFXSTDTC RFXENDTC RFICDTC RFPENDTC DTHDTC
   <chr>   <chr>   <chr>  <chr>   <chr>   <chr>    <chr>    <chr>   <chr>    <chr> 
 1 CDISCP… 01-701… 1015   2014-0… 2014-0… 2014-01… 2014-07… <NA>    2014-07… <NA>  
 2 CDISCP… 01-701… 1023   2012-0… 2012-0… 2012-08… 2012-09… <NA>    2013-02… <NA>  
 3 CDISCP… 01-701… 1028   2013-0… 2014-0… 2013-07… 2014-01… <NA>    2014-01… <NA>  
 4 CDISCP… 01-701… 1033   2014-0… 2014-0… 2014-03… 2014-03… <NA>    2014-09… <NA>  
 5 CDISCP… 01-701… 1034   2014-0… 2014-1… 2014-07… 2014-12… <NA>    2014-12… <NA>  
 6 CDISCP… 01-701… 1047   2013-0… 2013-0… 2013-02… 2013-03… <NA>    2013-07… <NA>  
 7 CDISCP… 01-701… 1057   <NA>    <NA>    <NA>     <NA>     <NA>    2013-12… <NA>  
 8 CDISCP… 01-701… 1097   2014-0… 2014-0… 2014-01… 2014-07… <NA>    2014-07… <NA>  
 9 CDISCP… 01-701… 1111   2012-0… 2012-0… 2012-09… 2012-09… <NA>    2013-02… <NA>  
10 CDISCP… 01-701… 1115   2012-1… 2013-0… 2012-11… 2013-01… <NA>    2013-05… <NA>  
# ℹ 296 more rows
# ℹ 44 more variables: DTHFL <chr>, SITEID <chr>, AGE <dbl>, AGEU <chr>,
#   SEX <chr>, RACE <chr>, ETHNIC <chr>, ARMCD <chr>, ARM <chr>, ACTARMCD <chr>,
#   ACTARM <chr>, COUNTRY <chr>, DMDTC <chr>, DMDY <dbl>, TRT01P <chr>,
#   TRT01A <chr>, TRTSDTM <dttm>, TRTSTMF <chr>, TRTEDTM <dttm>, TRTETMF <chr>,
#   TRTSDT <date>, TRTEDT <date>, TRTDURD <dbl>, SCRFDT <date>, EOSDT <date>,
#   EOSSTT <chr>, FRVDT <date>, RANDDT <date>, DTHDT <date>, DTHDTF <chr>, …
# ℹ Use `print(n = ...)` to see more rows
# A tibble: 582 × 3
   USUBJID     AESOC                                                ACTARM         
   <chr>       <chr>                                                <chr>          
 1 01-701-1015 GENERAL DISORDERS AND ADMINISTRATION SITE CONDITIONS Placebo        
 2 01-701-1015 GASTROINTESTINAL DISORDERS                           Placebo        
 3 01-701-1023 SKIN AND SUBCUTANEOUS TISSUE DISORDERS               Placebo        
 4 01-701-1023 CARDIAC DISORDERS                                    Placebo        
 5 01-701-1028 GENERAL DISORDERS AND ADMINISTRATION SITE CONDITIONS Xanomeline Hig…
 6 01-701-1034 GENERAL DISORDERS AND ADMINISTRATION SITE CONDITIONS Xanomeline Hig…
 7 01-701-1047 GASTROINTESTINAL DISORDERS                           Placebo        
 8 01-701-1047 INFECTIONS AND INFESTATIONS                          Placebo        
 9 01-701-1047 CARDIAC DISORDERS                                    Placebo        
10 01-701-1097 SKIN AND SUBCUTANEOUS TISSUE DISORDERS               Xanomeline Low…
# ℹ 572 more rows
# ℹ Use `print(n = ...)` to see more rows
…
1 Placebo                 86
2 Screen Failure          52
3 Xanomeline High Dose    72
4 Xanomeline Low Dose     96
[1] 306
[1] 306
# A tibble: 4 × 2
  ACTARM                   N
  <chr>                <int>
1 Placebo                 86
2 Screen Failure          52
3 Xanomeline High Dose    72
4 Xanomeline Low Dose     96
[1] 306
# A tibble: 822 × 4
   USUBJID     ACTARM               AESOC                                     AETERM
   <chr>       <chr>                <chr>                                     <chr> 
 1 01-701-1015 Placebo              GENERAL DISORDERS AND ADMINISTRATION SIT… APPLI…
 2 01-701-1015 Placebo              GENERAL DISORDERS AND ADMINISTRATION SIT… APPLI…
 3 01-701-1015 Placebo              GASTROINTESTINAL DISORDERS                DIARR…
 4 01-701-1023 Placebo              SKIN AND SUBCUTANEOUS TISSUE DISORDERS    ERYTH…
 5 01-701-1023 Placebo              CARDIAC DISORDERS                         ATRIO…
 6 01-701-1028 Xanomeline High Dose GENERAL DISORDERS AND ADMINISTRATION SIT… APPLI…
 7 01-701-1028 Xanomeline High Dose GENERAL DISORDERS AND ADMINISTRATION SIT… APPLI…
 8 01-701-1034 Xanomeline High Dose GENERAL DISORDERS AND ADMINISTRATION SIT… APPLI…
 9 01-701-1034 Xanomeline High Dose GENERAL DISORDERS AND ADMINISTRATION SIT… FATIG…
10 01-701-1047 Placebo              GASTROINTESTINAL DISORDERS                HIATU…
# ℹ 812 more rows
# ℹ Use `print(n = ...)` to see more rows
# A tibble: 822 × 4
   USUBJID     ACTARM               AESOC                                     AETERM
   <chr>       <chr>                <chr>                                     <chr> 
 1 01-701-1015 Placebo              GENERAL DISORDERS AND ADMINISTRATION SIT… APPLI…
 2 01-701-1015 Placebo              GENERAL DISORDERS AND ADMINISTRATION SIT… APPLI…
 3 01-701-1015 Placebo              GASTROINTESTINAL DISORDERS                DIARR…
 4 01-701-1023 Placebo              SKIN AND SUBCUTANEOUS TISSUE DISORDERS    ERYTH…
 5 01-701-1023 Placebo              CARDIAC DISORDERS                         ATRIO…
 6 01-701-1028 Xanomeline High Dose GENERAL DISORDERS AND ADMINISTRATION SIT… APPLI…
 7 01-701-1028 Xanomeline High Dose GENERAL DISORDERS AND ADMINISTRATION SIT… APPLI…
 8 01-701-1034 Xanomeline High Dose GENERAL DISORDERS AND ADMINISTRATION SIT… APPLI…
 9 01-701-1034 Xanomeline High Dose GENERAL DISORDERS AND ADMINISTRATION SIT… FATIG…
10 01-701-1047 Placebo              GASTROINTESTINAL DISORDERS                HIATU…
# ℹ 812 more rows
# ℹ Use `print(n = ...)` to see more rows
# A tibble: 582 × 2
   USUBJID     AESOC                                               
   <chr>       <chr>                                               
 1 01-701-1015 GENERAL DISORDERS AND ADMINISTRATION SITE CONDITIONS
 2 01-701-1015 GASTROINTESTINAL DISORDERS                          
 3 01-701-1023 SKIN AND SUBCUTANEOUS TISSUE DISORDERS              
 4 01-701-1023 CARDIAC DISORDERS                                   
 5 01-701-1028 GENERAL DISORDERS AND ADMINISTRATION SITE CONDITIONS
 6 01-701-1034 GENERAL DISORDERS AND ADMINISTRATION SITE CONDITIONS
 7 01-701-1047 GASTROINTESTINAL DISORDERS                          
 8 01-701-1047 INFECTIONS AND INFESTATIONS                         
 9 01-701-1047 CARDIAC DISORDERS                                   
10 01-701-1097 SKIN AND SUBCUTANEOUS TISSUE DISORDERS              
# ℹ 572 more rows
# ℹ Use `print(n = ...)` to see more rows
# A tibble: 23 × 2
   AESOC                                                n_total
   <chr>                                                  <int>
 1 CARDIAC DISORDERS                                         44
 2 CONGENITAL, FAMILIAL AND GENETIC DISORDERS                 3
 3 EAR AND LABYRINTH DISORDERS                                4
 4 EYE DISORDERS                                              7
 5 GASTROINTESTINAL DISORDERS                                53
 6 GENERAL DISORDERS AND ADMINISTRATION SITE CONDITIONS     108
 7 HEPATOBILIARY DISORDERS                                    1
 8 IMMUNE SYSTEM DISORDERS                                    2
 9 INFECTIONS AND INFESTATIONS                               39
10 INJURY, POISONING AND PROCEDURAL COMPLICATIONS            14
# ℹ 13 more rows
# ℹ Use `print(n = ...)` to see more rows
# A tibble: 23 × 2
   AESOC                                                n_total
   <chr>                                                  <int>
 1 GENERAL DISORDERS AND ADMINISTRATION SITE CONDITIONS     108
 2 SKIN AND SUBCUTANEOUS TISSUE DISORDERS                   105
 3 NERVOUS SYSTEM DISORDERS                                  59
 4 GASTROINTESTINAL DISORDERS                                53
 5 CARDIAC DISORDERS                                         44
 6 INFECTIONS AND INFESTATIONS                               39
 7 RESPIRATORY, THORACIC AND MEDIASTINAL DISORDERS           30
 8 PSYCHIATRIC DISORDERS                                     29
 9 INVESTIGATIONS                                            23
10 MUSCULOSKELETAL AND CONNECTIVE TISSUE DISORDERS           20
# ℹ 13 more rows
# ℹ Use `print(n = ...)` to see more rows
…
[12] "RENAL AND URINARY DISORDERS"                                        
[13] "METABOLISM AND NUTRITION DISORDERS"                                 
[14] "VASCULAR DISORDERS"                                                 
[15] "EYE DISORDERS"                                                      
[16] "SURGICAL AND MEDICAL PROCEDURES"                                    
[17] "EAR AND LABYRINTH DISORDERS"                                        
[18] "CONGENITAL, FAMILIAL AND GENETIC DISORDERS"                         
[19] "NEOPLASMS BENIGN, MALIGNANT AND UNSPECIFIED (INCL CYSTS AND POLYPS)"
[20] "REPRODUCTIVE SYSTEM AND BREAST DISORDERS"                           
[21] "IMMUNE SYSTEM DISORDERS"                                            
[22] "HEPATOBILIARY DISORDERS"                                            
[23] "SOCIAL CIRCUMSTANCES"                                               
attr(,"label")
[1] "Primary System Organ Class"
# A tibble: 822 × 5
   USUBJID     ACTARM               AESOC                               AETERM  flag
   <chr>       <chr>                <fct>                               <chr>  <dbl>
 1 01-701-1015 Placebo              GENERAL DISORDERS AND ADMINISTRATI… APPLI…     1
 2 01-701-1015 Placebo              GENERAL DISORDERS AND ADMINISTRATI… APPLI…     1
 3 01-701-1015 Placebo              GASTROINTESTINAL DISORDERS          DIARR…     1
 4 01-701-1023 Placebo              SKIN AND SUBCUTANEOUS TISSUE DISOR… ERYTH…     1
 5 01-701-1023 Placebo              CARDIAC DISORDERS                   ATRIO…     1
 6 01-701-1028 Xanomeline High Dose GENERAL DISORDERS AND ADMINISTRATI… APPLI…     1
 7 01-701-1028 Xanomeline High Dose GENERAL DISORDERS AND ADMINISTRATI… APPLI…     1
 8 01-701-1034 Xanomeline High Dose GENERAL DISORDERS AND ADMINISTRATI… APPLI…     1
 9 01-701-1034 Xanomeline High Dose GENERAL DISORDERS AND ADMINISTRATI… FATIG…     1
10 01-701-1047 Placebo              GASTROINTESTINAL DISORDERS          HIATU…     1
# ℹ 812 more rows
# ℹ Use `print(n = ...)` to see more rows
# A tibble: 225 × 25
   USUBJID     ACTARM               GENERAL DISORDERS AND A…¹ GASTROINTESTINAL DIS…²
   <chr>       <chr>                <list>                    <list>                
 1 01-701-1015 Placebo              <dbl [2]>                 <dbl [1]>             
 2 01-701-1023 Placebo              <NULL>                    <NULL>                
 3 01-701-1028 Xanomeline High Dose <dbl [2]>                 <NULL>                
 4 01-701-1034 Xanomeline High Dose <dbl [2]>                 <NULL>                
 5 01-701-1047 Placebo              <NULL>                    <dbl [1]>             
 6 01-701-1097 Xanomeline Low Dose  <dbl [2]>                 <NULL>                
 7 01-701-1111 Xanomeline Low Dose  <NULL>                    <NULL>                
 8 01-701-1115 Xanomeline Low Dose  <dbl [5]>                 <NULL>                
 9 01-701-1130 Placebo              <dbl [1]>                 <NULL>                
10 01-701-1133 Xanomeline High Dose <dbl [2]>                 <NULL>                
# ℹ 215 more rows
# ℹ abbreviated names: ¹​`GENERAL DISORDERS AND ADMINISTRATION SITE CONDITIONS`,
#   ²​`GASTROINTESTINAL DISORDERS`
# ℹ 21 more variables: `SKIN AND SUBCUTANEOUS TISSUE DISORDERS` <list>,
#   `CARDIAC DISORDERS` <list>, `INFECTIONS AND INFESTATIONS` <list>,
#   `RESPIRATORY, THORACIC AND MEDIASTINAL DISORDERS` <list>,
#   `MUSCULOSKELETAL AND CONNECTIVE TISSUE DISORDERS` <list>, …
# ℹ Use `print(n = ...)` to see more rows
# A tibble: 306 × 3
   USUBJID     ACTARM               any_teae
   <chr>       <chr>                   <dbl>
 1 01-701-1015 Placebo                     1
 2 01-701-1023 Placebo                     1
 3 01-701-1028 Xanomeline High Dose        1
 4 01-701-1033 Xanomeline Low Dose        NA
 5 01-701-1034 Xanomeline High Dose        1
 6 01-701-1047 Placebo                     1
 7 01-701-1057 Screen Failure             NA
 8 01-701-1097 Xanomeline Low Dose         1
 9 01-701-1111 Xanomeline Low Dose         1
10 01-701-1115 Xanomeline Low Dose         1
# ℹ 296 more rows
# ℹ Use `print(n = ...)` to see more rows

             Placebo Xanomeline High Dose 
                  86                   72 
 Xanomeline Low Dose 
                  96 

  0   1 
 29 225 
# A tibble: 306 × 3
   USUBJID     ACTARM               any_teae
   <chr>       <chr>                   <dbl>
 1 01-701-1015 Placebo                     1
 2 01-701-1023 Placebo                     1
 3 01-701-1028 Xanomeline High Dose        1
 4 01-701-1033 Xanomeline Low Dose        NA
 5 01-701-1034 Xanomeline High Dose        1
 6 01-701-1047 Placebo                     1
 7 01-701-1057 Screen Failure             NA
 8 01-701-1097 Xanomeline Low Dose         1
 9 01-701-1111 Xanomeline Low Dose         1
10 01-701-1115 Xanomeline Low Dose         1
# ℹ 296 more rows
# ℹ Use `print(n = ...)` to see more rows
# A tibble: 225 × 3
   USUBJID     ACTARM               any_teae
   <chr>       <chr>                   <dbl>
 1 01-701-1015 Placebo                     1
 2 01-701-1023 Placebo                     1
 3 01-701-1028 Xanomeline High Dose        1
 4 01-701-1034 Xanomeline High Dose        1
 5 01-701-1047 Placebo                     1
 6 01-701-1097 Xanomeline Low Dose         1
 7 01-701-1111 Xanomeline Low Dose         1
 8 01-701-1115 Xanomeline Low Dose         1
 9 01-701-1130 Placebo                     1
10 01-701-1133 Xanomeline High Dose        1
# ℹ 215 more rows
# ℹ Use `print(n = ...)` to see more rows
…
